<?xml version="1.0" encoding="UTF-8"?>
<svg width="30px" height="35px" viewBox="0 0 30 35" version="1.1" xmlns="http://www.w3.org/2000/svg" xmlns:xlink="http://www.w3.org/1999/xlink">
    <g id="tri" stroke="none" stroke-width="0" fill="#ffff" fill-rule="evenodd">
        <polygon id="tri" fill="#FEFEFE" points="0 35 0.087 -0.01 30 17.57"></polygon>
    </g>
</svg>